# A tibble: 22 × 11
   subgroup_variable subgroup_level subgroup_label    outcome_variable catlevel
   <chr>                      <dbl> <chr>             <chr>               <dbl>
 1 Overall                       NA Overall           glp_med12m              1
 2 agecat_b                       1 18-39y            glp_med12m              1
 3 agecat_b                       2 40-64y            glp_med12m              1
 4 agecat_b                       3 65y+              glp_med12m              1
 5 p_sex                          1 Male              glp_med12m              1
 6 p_sex                          2 Female            glp_med12m              1
 7 race                           1 White             glp_med12m              1
 8 race                           2 Black             glp_med12m              1
 9 race                           3 Hispanic          glp_med12m              1
10 race                           4 Other/Multiracial glp_med12m              1
# ℹ 12 more rows
# ℹ 6 more variables: percent <dbl>, sepercent <dbl>, lowpct <dbl>,
#   uppct <dbl>, nsum <int>, wsum <dbl>
# A tibble: 22 × 11
   subgroup_variable subgroup_level subgroup_label    outcome_variable catlevel
   <chr>                      <dbl> <chr>             <chr>               <dbl>
 1 Overall                       NA Overall           compounded              1
 2 agecat_b                       1 18-39y            compounded              1
 3 agecat_b                       2 40-64y            compounded              1
 4 agecat_b                       3 65y+              compounded              1
 5 p_sex                          1 Male              compounded              1
 6 p_sex                          2 Female            compounded              1
 7 race                           1 White             compounded              1
 8 race                           2 Black             compounded              1
 9 race                           3 Hispanic          compounded              1
10 race                           4 Other/Multiracial compounded              1
# ℹ 12 more rows
# ℹ 6 more variables: percent <dbl>, sepercent <dbl>, lowpct <dbl>,
#   uppct <dbl>, nsum <int>, wsum <dbl>
…
